Guia4intento3/simulation/qsim/sumador1bit.msim.vcd
$comment
	File created using the following command:
		vcd file sumador1bit.msim.vcd -direction
$end
$date
	Thu Nov 11 16:17:34 2021
$end
$version
	ModelSim Version 10.5b
$end
$timescale
	1ps
$end

$scope module sumador1bit_vlg_vec_tst $end
$var reg 1 ! A $end
$var reg 1 " B $end
$var reg 1 # C_IN $end
$var wire 1 $ Acarreo $end
$var wire 1 % Suma $end

$scope module i1 $end
$var wire 1 & gnd $end
$var wire 1 ' vcc $end
$var wire 1 ( unknown $end
$var tri1 1 ) devclrn $end
$var tri1 1 * devpor $end
$var tri1 1 + devoe $end
$var wire 1 , ~QUARTUS_CREATED_GND~I_combout $end
$var wire 1 - B~input_o $end
$var wire 1 . C_IN~input_o $end
$var wire 1 / A~input_o $end
$var wire 1 0 inst5~combout $end
$var wire 1 1 inst3~combout $end
$upscope $end
$upscope $end
$enddefinitions $end
#0
$dumpvars
0!
0"
0#
0$
0%
0&
1'
x(
1)
1*
1+
0,
0-
0.
0/
00
01
$end
#20000
1!
1/
10
1%
#40000
1"
0!
1-
0/
#60000
1#
1!
1.
1/
11
1$
#80000
0"
0!
0-
0/
01
0$
#100000
1!
1/
11
00
0%
1$
#120000
0#
1"
0!
0.
1-
0/
01
10
1%
0$
#140000
1!
1/
11
00
0%
1$
#160000
0"
0!
0-
0/
01
0$
#180000
1#
1!
1.
1/
11
1$
#200000
1"
0!
1-
0/
#220000
1!
1/
10
1%
#240000
0#
0"
0!
0.
0-
0/
01
00
0%
0$
#260000
1!
1/
10
1%
#280000
1"
0!
1-
0/
#300000
1#
1!
1.
1/
11
1$
#320000
0"
0!
0-
0/
01
0$
#340000
1!
1/
11
00
0%
1$
#360000
0#
1"
0!
0.
1-
0/
01
10
1%
0$
#380000
1!
1/
11
00
0%
1$
#400000
0"
0!
0-
0/
01
0$
#420000
1#
1!
1.
1/
11
1$
#440000
1"
0!
1-
0/
#460000
1!
1/
10
1%
#480000
0#
0"
0!
0.
0-
0/
01
00
0%
0$
#500000
1!
1/
10
1%
#520000
1"
0!
1-
0/
#540000
1#
1!
1.
1/
11
1$
#560000
0"
0!
0-
0/
01
0$
#580000
1!
1/
11
00
0%
1$
#600000
0#
1"
0!
0.
1-
0/
01
10
1%
0$
#620000
1!
1/
11
00
0%
1$
#640000
0"
0!
0-
0/
01
0$
#660000
1#
1!
1.
1/
11
1$
#680000
1"
0!
1-
0/
#700000
1!
1/
10
1%
#720000
0#
0"
0!
0.
0-
0/
01
00
0%
0$
#740000
1!
1/
10
1%
#760000
1"
0!
1-
0/
#780000
1#
1!
1.
1/
11
1$
#800000
0"
0!
0-
0/
01
0$
#820000
1!
1/
11
00
0%
1$
#840000
0#
1"
0!
0.
1-
0/
01
10
1%
0$
#860000
1!
1/
11
00
0%
1$
#880000
0"
0!
0-
0/
01
0$
#900000
1#
1!
1.
1/
11
1$
#920000
1"
0!
1-
0/
#940000
1!
1/
10
1%
#960000
0#
0"
0!
0.
0-
0/
01
00
0%
0$
#980000
1!
1/
10
1%
#999000
0!
0/
00
0%
