SEMAFORO/simulation/qsim/semaforo.msim.vcd
$comment
	File created using the following command:
		vcd file semaforo.msim.vcd -direction
$end
$date
	Mon Nov 22 07:41:52 2021
$end
$version
	ModelSim Version 10.5b
$end
$timescale
	1ps
$end

$scope module semaforo_vhd_vec_tst $end
$var wire 1 ! E [2] $end
$var wire 1 " E [1] $end
$var wire 1 # E [0] $end
$var wire 1 $ S [6] $end
$var wire 1 % S [5] $end
$var wire 1 & S [4] $end
$var wire 1 ' S [3] $end
$var wire 1 ( S [2] $end
$var wire 1 ) S [1] $end
$var wire 1 * S [0] $end

$scope module i1 $end
$var wire 1 + gnd $end
$var wire 1 , vcc $end
$var wire 1 - unknown $end
$var wire 1 . devoe $end
$var wire 1 / devclrn $end
$var wire 1 0 devpor $end
$var wire 1 1 ww_devoe $end
$var wire 1 2 ww_devclrn $end
$var wire 1 3 ww_devpor $end
$var wire 1 4 ww_E [2] $end
$var wire 1 5 ww_E [1] $end
$var wire 1 6 ww_E [0] $end
$var wire 1 7 ww_S [6] $end
$var wire 1 8 ww_S [5] $end
$var wire 1 9 ww_S [4] $end
$var wire 1 : ww_S [3] $end
$var wire 1 ; ww_S [2] $end
$var wire 1 < ww_S [1] $end
$var wire 1 = ww_S [0] $end
$var wire 1 > \~QUARTUS_CREATED_GND~I_combout\ $end
$var wire 1 ? \E[0]~input_o\ $end
$var wire 1 @ \E[2]~input_o\ $end
$var wire 1 A \E[1]~input_o\ $end
$var wire 1 B \Mux1~0_combout\ $end
$var wire 1 C \Mux5~0_combout\ $end
$var wire 1 D \Mux4~0_combout\ $end
$var wire 1 E \Mux3~0_combout\ $end
$var wire 1 F \ALT_INV_E[2]~input_o\ $end
$var wire 1 G \ALT_INV_Mux5~0_combout\ $end
$var wire 1 H \ALT_INV_Mux4~0_combout\ $end
$var wire 1 I \ALT_INV_E[0]~input_o\ $end
$var wire 1 J \ALT_INV_E[1]~input_o\ $end
$upscope $end
$upscope $end
$enddefinitions $end
#0
$dumpvars
0+
1,
x-
1.
1/
10
11
12
13
x>
0?
0@
0A
1B
0C
0D
1E
1F
1G
1H
1I
1J
0!
0"
0#
1$
1%
1&
1'
1(
1)
1*
04
05
06
17
18
19
1:
1;
1<
1=
$end
#10000000
1#
16
1?
0I
0B
1C
1D
0H
0G
0=
09
08
0<
07
0;
0*
0&
0%
0)
0(
0$
#20000000
0#
1"
06
15
1A
0?
1I
0J
0E
0C
0D
1H
1G
0:
1<
17
1;
0'
1)
1(
1$
#30000000
1#
16
1?
0I
#40000000
0#
0"
1!
06
05
14
1@
0A
0?
1I
1J
0F
1E
1C
0G
1:
0<
07
1'
0)
0$
#50000000
1#
16
1?
0I
#60000000
0#
1"
06
15
1A
0?
1I
0J
#70000000
1#
16
1?
0I
#80000000
0#
0"
0!
06
05
04
0@
0A
0?
1I
1J
1F
1B
0C
1G
1=
19
18
1<
17
1*
1&
1%
1)
1$
