Selector/simulation/qsim/Selector.msim.vcd
$comment
	File created using the following command:
		vcd file Selector.msim.vcd -direction
$end
$date
	Mon Nov 29 22:49:08 2021
$end
$version
	ModelSim Version 10.5b
$end
$timescale
	1ps
$end

$scope module selector_vhd_vec_tst $end
$var wire 1 ! D [3] $end
$var wire 1 " D [2] $end
$var wire 1 # D [1] $end
$var wire 1 $ D [0] $end
$var wire 1 % mPC [3] $end
$var wire 1 & mPC [2] $end
$var wire 1 ' mPC [1] $end
$var wire 1 ( mPC [0] $end
$var wire 1 ) out1 [3] $end
$var wire 1 * out1 [2] $end
$var wire 1 + out1 [1] $end
$var wire 1 , out1 [0] $end
$var wire 1 - sel $end

$scope module i1 $end
$var wire 1 . gnd $end
$var wire 1 / vcc $end
$var wire 1 0 unknown $end
$var wire 1 1 devoe $end
$var wire 1 2 devclrn $end
$var wire 1 3 devpor $end
$var wire 1 4 ww_devoe $end
$var wire 1 5 ww_devclrn $end
$var wire 1 6 ww_devpor $end
$var wire 1 7 ww_sel $end
$var wire 1 8 ww_D [3] $end
$var wire 1 9 ww_D [2] $end
$var wire 1 : ww_D [1] $end
$var wire 1 ; ww_D [0] $end
$var wire 1 < ww_mPC [3] $end
$var wire 1 = ww_mPC [2] $end
$var wire 1 > ww_mPC [1] $end
$var wire 1 ? ww_mPC [0] $end
$var wire 1 @ ww_out1 [3] $end
$var wire 1 A ww_out1 [2] $end
$var wire 1 B ww_out1 [1] $end
$var wire 1 C ww_out1 [0] $end
$var wire 1 D \~QUARTUS_CREATED_GND~I_combout\ $end
$var wire 1 E \mPC[0]~input_o\ $end
$var wire 1 F \D[0]~input_o\ $end
$var wire 1 G \sel~input_o\ $end
$var wire 1 H \out1~0_combout\ $end
$var wire 1 I \mPC[1]~input_o\ $end
$var wire 1 J \D[1]~input_o\ $end
$var wire 1 K \out1~1_combout\ $end
$var wire 1 L \D[2]~input_o\ $end
$var wire 1 M \mPC[2]~input_o\ $end
$var wire 1 N \out1~2_combout\ $end
$var wire 1 O \mPC[3]~input_o\ $end
$var wire 1 P \D[3]~input_o\ $end
$var wire 1 Q \out1~3_combout\ $end
$var wire 1 R \ALT_INV_D[3]~input_o\ $end
$var wire 1 S \ALT_INV_mPC[3]~input_o\ $end
$var wire 1 T \ALT_INV_D[2]~input_o\ $end
$var wire 1 U \ALT_INV_mPC[2]~input_o\ $end
$var wire 1 V \ALT_INV_D[1]~input_o\ $end
$var wire 1 W \ALT_INV_mPC[1]~input_o\ $end
$var wire 1 X \ALT_INV_D[0]~input_o\ $end
$var wire 1 Y \ALT_INV_mPC[0]~input_o\ $end
$var wire 1 Z \ALT_INV_sel~input_o\ $end
$upscope $end
$upscope $end
$enddefinitions $end
#0
$dumpvars
0-
0.
1/
x0
11
12
13
14
15
16
07
xD
0E
0F
0G
0H
0I
0J
0K
0L
0M
0N
0O
0P
0Q
1R
1S
1T
1U
1V
1W
1X
1Y
1Z
0!
0"
0#
0$
0%
0&
0'
0(
08
09
0:
0;
0<
0=
0>
0?
0@
0A
0B
0C
0)
0*
0+
0,
$end
#25000
1(
1?
1E
0Y
#50000
0(
1'
0?
1>
1I
0E
1Y
0W
#75000
1(
1?
1E
0Y
#100000
0(
0'
1$
1&
1-
0?
0>
1=
1;
17
1G
1F
1M
0I
0E
1Y
1W
0U
0X
0Z
1N
1A
1*
#125000
1(
1?
1E
0Y
1H
1C
1,
#150000
0(
1'
0?
1>
1I
0E
1Y
0W
1K
0H
0C
1B
0,
1+
#175000
1(
1?
1E
0Y
1H
1C
1,
#200000
0(
0'
0$
0&
0-
1#
1%
0?
0>
0=
1<
0;
1:
07
0G
1J
0F
1O
0M
0I
0E
1Y
1W
1U
0S
1X
0V
1Z
0N
0H
0C
0A
0,
0*
#225000
1(
1?
1E
0Y
#250000
0(
1'
0?
1>
1I
0E
1Y
0W
#275000
1(
1?
1E
0Y
#300000
0(
0'
1$
1&
1-
0?
0>
1=
1;
17
1G
1F
1M
0I
0E
1Y
1W
0U
0X
0Z
1Q
1N
0K
0B
1A
1@
0+
1*
1)
#325000
1(
1?
1E
0Y
1H
1C
1,
#350000
0(
1'
0?
1>
1I
0E
1Y
0W
1K
0H
0C
1B
0,
1+
#375000
1(
1?
1E
0Y
1H
1C
1,
#400000
0(
0'
0$
0&
0-
0#
0%
1"
0?
0>
0=
0<
0;
0:
19
07
0G
1L
0J
0F
0O
0M
0I
0E
1Y
1W
1U
1S
1X
1V
0T
1Z
0Q
0K
0H
0C
0B
0@
0,
0+
0)
#425000
1(
1?
1E
0Y
#450000
0(
1'
0?
1>
1I
0E
1Y
0W
#475000
1(
1?
1E
0Y
#500000
0(
0'
1$
1&
1-
0?
0>
1=
1;
17
1G
1F
1M
0I
0E
1Y
1W
0U
0X
0Z
#525000
1(
1?
1E
0Y
1H
1C
1,
#550000
0(
1'
0?
1>
1I
0E
1Y
0W
1K
0H
0C
1B
0,
1+
#575000
1(
1?
1E
0Y
1H
1C
1,
#600000
0(
0'
0$
0&
0-
1#
1%
0?
0>
0=
1<
0;
1:
07
0G
1J
0F
1O
0M
0I
0E
1Y
1W
1U
0S
1X
0V
1Z
0H
0C
0,
#625000
1(
1?
1E
0Y
#650000
0(
1'
0?
1>
1I
0E
1Y
0W
#675000
1(
1?
1E
0Y
#700000
0(
0'
1$
1&
1-
0?
0>
1=
1;
17
1G
1F
1M
0I
0E
1Y
1W
0U
0X
0Z
1Q
0K
0B
1@
0+
1)
#725000
1(
1?
1E
0Y
1H
1C
1,
#750000
0(
1'
0?
1>
1I
0E
1Y
0W
1K
0H
0C
1B
0,
1+
#775000
1(
1?
1E
0Y
1H
1C
1,
#800000
0(
0'
0$
0&
0-
0#
0%
0"
1!
0?
0>
0=
0<
0;
0:
09
18
07
0G
1P
0L
0J
0F
0O
0M
0I
0E
1Y
1W
1U
1S
1X
1V
1T
0R
1Z
0N
0K
0H
0C
0B
0A
0,
0+
0*
#825000
1(
1?
1E
0Y
#850000
0(
1'
0?
1>
1I
0E
1Y
0W
#875000
1(
1?
1E
0Y
#900000
0(
0'
1$
1&
1-
0?
0>
1=
1;
17
1G
1F
1M
0I
0E
1Y
1W
0U
0X
0Z
0Q
1N
1A
0@
1*
0)
#925000
1(
1?
1E
0Y
1H
1C
1,
#950000
0(
1'
0?
1>
1I
0E
1Y
0W
1K
0H
0C
1B
0,
1+
#975000
1(
1?
1E
0Y
1H
1C
1,
